%YAML 1.1
%TAG !u! tag:unity3d.com,2011:
--- !u!74 &7400000
AnimationClip:
  m_ObjectHideFlags: 0
  m_CorrespondingSourceObject: {fileID: 0}
  m_PrefabInstance: {fileID: 0}
  m_PrefabAsset: {fileID: 0}
  m_Name: move
  serializedVersion: 6
  m_Legacy: 1
  m_Compressed: 0
  m_UseHighQualityCurve: 1
  m_RotationCurves:
  - curve:
      serializedVersion: 2
      m_Curve:
      - serializedVersion: 3
        time: 0
        value: {x: -0.7069834, y: -0, z: -0, w: 0.7072302}
        inSlope: {x: -2.0222926, y: 0.80427104, z: 0.8870701, w: -2.1406639}
        outSlope: {x: -2.0222926, y: 0.80427104, z: 0.8870701, w: -2.1406639}
        tangentMode: 0
        weightedMode: 0
        inWeight: {x: 0.33333334, y: 0.33333334, z: 0.33333334, w: 0.33333334}
        outWeight: {x: 0.33333334, y: 0.33333334, z: 0.33333334, w: 0.33333334}
      - serializedVersion: 3
        time: 0.016666668
        value: {x: -0.74068826, y: 0.013404518, z: 0.014784503, w: 0.6715525}
        inSlope: {x: -1.9591265, y: 0.75962186, z: 0.925283, w: -2.19635}
        outSlope: {x: -1.9591265, y: 0.75962186, z: 0.925283, w: -2.19635}
        tangentMode: 0
        weightedMode: 0
        inWeight: {x: 0.33333334, y: 0.33333334, z: 0.33333334, w: 0.33333334}
        outWeight: {x: 0.33333334, y: 0.33333334, z: 0.33333334, w: 0.33333334}
      - serializedVersion: 3
        time: 0.033333335
        value: {x: -0.7722876, y: 0.025320731, z: 0.030842768, w: 0.63401854}
        inSlope: {x: -1.8294344, y: 0.6674634, z: 0.9981513, w: -2.3036203}
        outSlope: {x: -1.8294344, y: 0.6674634, z: 0.9981513, w: -2.3036203}
        tangentMode: 0
        weightedMode: 0
        inWeight: {x: 0.33333334, y: 0.33333334, z: 0.33333334, w: 0.33333334}
        outWeight: {x: 0.33333334, y: 0.33333334, z: 0.33333334, w: 0.33333334}
      - serializedVersion: 3
        time: 0.050000004
        value: {x: -0.8016694, y: 0.0356533, z: 0.048056215, w: 0.5947651}
        inSlope: {x: -1.6933, y: 0.5698481, z: 1.0637054, w: -2.402467}
        outSlope: {x: -1.6933, y: 0.5698481, z: 1.0637054, w: -2.402467}
        tangentMode: 0
        weightedMode: 0
        inWeight: {x: 0.33333334, y: 0.33333334, z: 0.33333334, w: 0.33333334}
        outWeight: {x: 0.33333334, y: 0.33333334, z: 0.33333334, w: 0.33333334}
      - serializedVersion: 3
        time: 0.06666667
        value: {x: -0.82873094, y: 0.04431567, z: 0.06629962, w: 0.5539363}
        inSlope: {x: -1.551295, y: 0.46731764, z: 1.1215684, w: -2.492477}
        outSlope: {x: -1.551295, y: 0.46731764, z: 1.1215684, w: -2.492477}
        tangentMode: 0
        weightedMode: 0
        inWeight: {x: 0.33333334, y: 0.33333334, z: 0.33333334, w: 0.33333334}
        outWeight: {x: 0.33333334, y: 0.33333334, z: 0.33333334, w: 0.33333334}
      - serializedVersion: 3
        time: 0.083333336
        value: {x: -0.85337925, y: 0.051230554, z: 0.08544183, w: 0.51168257}
        inSlope: {x: -1.4040203, y: 0.3604365, z: 1.1714017, w: -2.5733044}
        outSlope: {x: -1.4040203, y: 0.3604365, z: 1.1714017, w: -2.5733044}
        tangentMode: 0
        weightedMode: 0
        inWeight: {x: 0.33333334, y: 0.33333334, z: 0.33333334, w: 0.33333334}
        outWeight: {x: 0.33333334, y: 0.33333334, z: 0.33333334, w: 0.33333334}
      - serializedVersion: 3
        time: 0.1
        value: {x: -0.8755316, y: 0.05633022, z: 0.10534634, w: 0.4681595}
        inSlope: {x: -1.2521036, y: 0.2497928, z: 1.2129061, w: -2.644619}
        outSlope: {x: -1.2521036, y: 0.2497928, z: 1.2129061, w: -2.644619}
        tangentMode: 0
        weightedMode: 0
        inWeight: {x: 0.33333334, y: 0.33333334, z: 0.33333334, w: 0.33333334}
        outWeight: {x: 0.33333334, y: 0.33333334, z: 0.33333334, w: 0.33333334}
      - serializedVersion: 3
        time: 0.11666667
        value: {x: -0.89511603, y: 0.05955698, z: 0.12587203, w: 0.4235286}
        inSlope: {x: -1.0961812, y: 0.13599637, z: 1.2458265, w: -2.706125}
        outSlope: {x: -1.0961812, y: 0.13599637, z: 1.2458265, w: -2.706125}
        tangentMode: 0
        weightedMode: 0
        inWeight: {x: 0.33333334, y: 0.33333334, z: 0.33333334, w: 0.33333334}
        outWeight: {x: 0.33333334, y: 0.33333334, z: 0.33333334, w: 0.33333334}
      - serializedVersion: 3
        time: 0.13333334
        value: {x: -0.912071, y: 0.06086343, z: 0.14687389, w: 0.37795532}
        inSlope: {x: -0.9369116, y: 0.019671304, z: 1.2699497, w: -2.7575965}
        outSlope: {x: -0.9369116, y: 0.019671304, z: 1.2699497, w: -2.7575965}
        tangentMode: 0
        weightedMode: 0
        inWeight: {x: 0.33333334, y: 0.33333334, z: 0.33333334, w: 0.33333334}
        outWeight: {x: 0.33333334, y: 0.33333334, z: 0.33333334, w: 0.33333334}
      - serializedVersion: 3
        time: 0.15
        value: {x: -0.9263464, y: 0.06021269, z: 0.1682037, w: 0.3316087}
        inSlope: {x: -0.7749707, y: -0.09854336, z: 1.2851071, w: -2.798838}
        outSlope: {x: -0.7749707, y: -0.09854336, z: 1.2851071, w: -2.798838}
        tangentMode: 0
        weightedMode: 0
        inWeight: {x: 0.33333334, y: 0.33333334, z: 0.33333334, w: 0.33333334}
        outWeight: {x: 0.33333334, y: 0.33333334, z: 0.33333334, w: 0.33333334}
      - serializedVersion: 3
        time: 0.16666667
        value: {x: -0.93790334, y: 0.057578653, z: 0.1897108, w: 0.28466073}
        inSlope: {x: -1.1436905, y: -0.74165857, z: 0.3720662, w: -4.2624454}
        outSlope: {x: -1.1436905, y: -0.74165857, z: 0.3720662, w: -4.2624454}
        tangentMode: 0
        weightedMode: 0
        inWeight: {x: 0.33333334, y: 0.33333334, z: 0.33333334, w: 0.33333334}
        outWeight: {x: 0.33333334, y: 0.33333334, z: 0.33333334, w: 0.33333334}
      - serializedVersion: 3
        time: 0.18333334
        value: {x: -0.96446943, y: 0.03549074, z: 0.1806059, w: 0.18952721}
        inSlope: {x: -1.298259, y: -1.2521899, z: -0.6187696, w: -5.7824755}
        outSlope: {x: -1.298259, y: -1.2521899, z: -0.6187696, w: -5.7824755}
        tangentMode: 0
        weightedMode: 0
        inWeight: {x: 0.33333334, y: 0.33333334, z: 0.33333334, w: 0.33333334}
        outWeight: {x: 0.33333334, y: 0.33333334, z: 0.33333334, w: 0.33333334}
      - serializedVersion: 3
        time: 0.2
        value: {x: -0.98117864, y: 0.01583899, z: 0.16908514, w: 0.091911554}
        inSlope: {x: -0.6999565, y: -1.098474, z: -0.75164175, w: -5.900152}
        outSlope: {x: -0.6999565, y: -1.098474, z: -0.75164175, w: -5.900152}
        tangentMode: 0
        weightedMode: 0
        inWeight: {x: 0.33333334, y: 0.33333334, z: 0.33333334, w: 0.33333334}
        outWeight: {x: 0.33333334, y: 0.33333334, z: 0.33333334, w: 0.33333334}
      - serializedVersion: 3
        time: 0.21666667
        value: {x: -0.9878013, y: -0.0011250626, z: 0.15555118, w: -0.0071445187}
        inSlope: {x: -0.09123624, y: -0.93137985, z: -0.8596065, w: -5.954712}
        outSlope: {x: -0.09123624, y: -0.93137985, z: -0.8596065, w: -5.954712}
        tangentMode: 0
        weightedMode: 0
        inWeight: {x: 0.33333334, y: 0.33333334, z: 0.33333334, w: 0.33333334}
        outWeight: {x: 0.33333334, y: 0.33333334, z: 0.33333334, w: 0.33333334}
      - serializedVersion: 3
        time: 0.23333333
        value: {x: -0.98421985, y: -0.015207005, z: 0.1404316, w: -0.106578834}
        inSlope: {x: 0.5211354, y: -0.75440335, z: -0.94139016, w: -5.9452863}
        outSlope: {x: 0.5211354, y: -0.75440335, z: -0.94139016, w: -5.9452863}
        tangentMode: 0
        weightedMode: 0
        inWeight: {x: 0.33333334, y: 0.33333334, z: 0.33333334, w: 0.33333334}
        outWeight: {x: 0.33333334, y: 0.33333334, z: 0.33333334, w: 0.33333334}
      - serializedVersion: 3
        time: 0.25
        value: {x: -0.97043014, y: -0.026271839, z: 0.12417151, w: -0.20532072}
        inSlope: {x: 1.1303198, y: -0.57115006, z: -0.99617517, w: -5.871726}
        outSlope: {x: 1.1303198, y: -0.57115006, z: -0.99617517, w: -5.871726}
        tangentMode: 0
        weightedMode: 0
        inWeight: {x: 0.33333334, y: 0.33333334, z: 0.33333334, w: 0.33333334}
        outWeight: {x: 0.33333334, y: 0.33333334, z: 0.33333334, w: 0.33333334}
      - serializedVersion: 3
        time: 0.26666668
        value: {x: -0.9465425, y: -0.034245346, z: 0.107225746, w: -0.3023031}
        inSlope: {x: 1.7294905, y: -0.38528302, z: -1.0236101, w: -5.7346334}
        outSlope: {x: 1.7294905, y: -0.38528302, z: -1.0236101, w: -5.7346334}
        tangentMode: 0
        weightedMode: 0
        inWeight: {x: 0.33333334, y: 0.33333334, z: 0.33333334, w: 0.33333334}
        outWeight: {x: 0.33333334, y: 0.33333334, z: 0.33333334, w: 0.33333334}
      - serializedVersion: 3
        time: 0.28333336
        value: {x: -0.9127804, y: -0.039114617, z: 0.090051144, w: -0.39647532}
        inSlope: {x: 2.3119156, y: -0.20046243, z: -1.0238099, w: -5.5353413}
        outSlope: {x: 2.3119156, y: -0.20046243, z: -1.0238099, w: -5.5353413}
        tangentMode: 0
        weightedMode: 0
        inWeight: {x: 0.33333334, y: 0.33333334, z: 0.33333334, w: 0.33333334}
        outWeight: {x: 0.33333334, y: 0.33333334, z: 0.33333334, w: 0.33333334}
      - serializedVersion: 3
        time: 0.30000004
        value: {x: -0.8694786, y: -0.040927432, z: 0.07309872, w: -0.48681465}
        inSlope: {x: 2.8710504, y: -0.020290338, z: -0.9973512, w: -5.2759132}
        outSlope: {x: 2.8710504, y: -0.020290338, z: -0.9973512, w: -5.2759132}
        tangentMode: 0
        weightedMode: 0
        inWeight: {x: 0.33333334, y: 0.33333334, z: 0.33333334, w: 0.33333334}
        outWeight: {x: 0.33333334, y: 0.33333334, z: 0.33333334, w: 0.33333334}
      - serializedVersion: 3
        time: 0.31666672
        value: {x: -0.81707865, y: -0.039790962, z: 0.056806076, w: -0.57233924}
        inSlope: {x: 3.4005983, y: 0.15174764, z: -0.9452614, w: -4.9591045}
        outSlope: {x: 3.4005983, y: 0.15174764, z: -0.9452614, w: -4.9591045}
        tangentMode: 0
        weightedMode: 0
        inWeight: {x: 0.33333334, y: 0.33333334, z: 0.33333334, w: 0.33333334}
        outWeight: {x: 0.33333334, y: 0.33333334, z: 0.33333334, w: 0.33333334}
      - serializedVersion: 3
        time: 0.3333334
        value: {x: -0.7561252, y: -0.035869174, z: 0.04158998, w: -0.65211827}
        inSlope: {x: 3.894584, y: 0.31233734, z: -0.8689995, w: -4.588337}
        outSlope: {x: 3.894584, y: 0.31233734, z: -0.8689995, w: -4.588337}
        tangentMode: 0
        weightedMode: 0
        inWeight: {x: 0.33333334, y: 0.33333334, z: 0.33333334, w: 0.33333334}
        outWeight: {x: 0.33333334, y: 0.33333334, z: 0.33333334, w: 0.33333334}
      - serializedVersion: 3
        time: 0.35000008
        value: {x: -0.6872591, y: -0.029379709, z: 0.027839404, w: -0.7252839}
        inSlope: {x: 4.347446, y: 0.45838365, z: -0.7704296, w: -4.1676626}
        outSlope: {x: 4.347446, y: 0.45838365, z: -0.7704296, w: -4.1676626}
        tangentMode: 0
        weightedMode: 0
        inWeight: {x: 0.33333334, y: 0.33333334, z: 0.33333334, w: 0.33333334}
        outWeight: {x: 0.33333334, y: 0.33333334, z: 0.33333334, w: 0.33333334}
      - serializedVersion: 3
        time: 0.36666676
        value: {x: -0.6112102, y: -0.020589706, z: 0.01590897, w: -0.7910405}
        inSlope: {x: 4.754081, y: 0.5870625, z: -0.65179235, w: -3.7017064}
        outSlope: {x: 4.754081, y: 0.5870625, z: -0.65179235, w: -3.7017064}
        tangentMode: 0
        weightedMode: 0
        inWeight: {x: 0.33333334, y: 0.33333334, z: 0.33333334, w: 0.33333334}
        outWeight: {x: 0.33333334, y: 0.33333334, z: 0.33333334, w: 0.33333334}
      - serializedVersion: 3
        time: 0.38333344
        value: {x: -0.5287896, y: -0.009810941, z: 0.0061129746, w: -0.84867424}
        inSlope: {x: 5.109909, y: 0.6958642, z: -0.5156674, w: -3.1956258}
        outSlope: {x: 5.109909, y: 0.6958642, z: -0.5156674, w: -3.1956258}
        tangentMode: 0
        weightedMode: 0
        inWeight: {x: 0.33333334, y: 0.33333334, z: 0.33333334, w: 0.33333334}
        outWeight: {x: 0.33333334, y: 0.33333334, z: 0.33333334, w: 0.33333334}
      - serializedVersion: 3
        time: 0.40000013
        value: {x: -0.4408798, y: 0.0026057884, z: -0.0012799563, w: -0.89756143}
        inSlope: {x: 5.410931, y: 0.782627, z: -0.36492985, w: -2.655045}
        outSlope: {x: 5.410931, y: 0.782627, z: -0.36492985, w: -2.655045}
        tangentMode: 0
        weightedMode: 0
        inWeight: {x: 0.33333334, y: 0.33333334, z: 0.33333334, w: 0.33333334}
        outWeight: {x: 0.33333334, y: 0.33333334, z: 0.33333334, w: 0.33333334}
      - serializedVersion: 3
        time: 0.4166668
        value: {x: -0.34842506, y: 0.016276646, z: -0.0060513634, w: -0.9371758}
        inSlope: {x: 4.9409423, y: 0.3891365, z: -0.095905855, w: -1.9022193}
        outSlope: {x: 4.9409423, y: 0.3891365, z: -0.095905855, w: -1.9022193}
        tangentMode: 0
        weightedMode: 0
        inWeight: {x: 0.33333334, y: 0.33333334, z: 0.33333334, w: 0.33333334}
        outWeight: {x: 0.33333334, y: 0.33333334, z: 0.33333334, w: 0.33333334}
      - serializedVersion: 3
        time: 0.4333335
        value: {x: -0.27618158, y: 0.0155770155, z: -0.0044768206, w: -0.9609688}
        inSlope: {x: 4.3826437, y: -0.046141054, z: 0.090175554, w: -1.2607337}
        outSlope: {x: 4.3826437, y: -0.046141054, z: 0.090175554, w: -1.2607337}
        tangentMode: 0
        weightedMode: 0
        inWeight: {x: 0.33333334, y: 0.33333334, z: 0.33333334, w: 0.33333334}
        outWeight: {x: 0.33333334, y: 0.33333334, z: 0.33333334, w: 0.33333334}
      - serializedVersion: 3
        time: 0.45000017
        value: {x: -0.20233682, y: 0.01473861, z: -0.003045509, w: -0.9792003}
        inSlope: {x: 4.465895, y: -0.05393197, z: 0.081236884, w: -0.92387354}
        outSlope: {x: 4.465895, y: -0.05393197, z: 0.081236884, w: -0.92387354}
        tangentMode: 0
        weightedMode: 0
        inWeight: {x: 0.33333334, y: 0.33333334, z: 0.33333334, w: 0.33333334}
        outWeight: {x: 0.33333334, y: 0.33333334, z: 0.33333334, w: 0.33333334}
      - serializedVersion: 3
        time: 0.46666685
        value: {x: -0.12731828, y: 0.013779282, z: -0.0017689223, w: -0.9917646}
        inSlope: {x: 4.5232906, y: -0.060624663, z: 0.071665406, w: -0.58165264}
        outSlope: {x: 4.5232906, y: -0.060624663, z: 0.071665406, w: -0.58165264}
        tangentMode: 0
        weightedMode: 0
        inWeight: {x: 0.33333334, y: 0.33333334, z: 0.33333334, w: 0.33333334}
        outWeight: {x: 0.33333334, y: 0.33333334, z: 0.33333334, w: 0.33333334}
      - serializedVersion: 3
        time: 0.48333353
        value: {x: -0.05156034, y: 0.012717786, z: -0.00065666006, w: -0.99858874}
        inSlope: {x: 4.554492, y: -0.06617035, z: 0.06157674, w: -0.23604678}
        outSlope: {x: 4.554492, y: -0.06617035, z: 0.06157674, w: -0.23604678}
        tangentMode: 0
        weightedMode: 0
        inWeight: {x: 0.33333334, y: 0.33333334, z: 0.33333334, w: 0.33333334}
        outWeight: {x: 0.33333334, y: 0.33333334, z: 0.33333334, w: 0.33333334}
      - serializedVersion: 3
        time: 0.5000002
        value: {x: 0.024498122, y: 0.011573603, z: 0.00028363566, w: -0.99963284}
        inSlope: {x: 4.559319, y: -0.070531294, z: 0.05109009, w: 0.11093448}
        outSlope: {x: 4.559319, y: -0.070531294, z: 0.05109009, w: 0.11093448}
        tangentMode: 0
        weightedMode: 0
        inWeight: {x: 0.33333334, y: 0.33333334, z: 0.33333334, w: 0.33333334}
        outWeight: {x: 0.33333334, y: 0.33333334, z: 0.33333334, w: 0.33333334}
      - serializedVersion: 3
        time: 0.5166668
        value: {x: 0.10041681, y: 0.010366745, z: 0.0010463414, w: -0.9948909}
        inSlope: {x: 4.5377436, y: -0.073681496, z: 0.040327273, w: 0.4572813}
        outSlope: {x: 4.5377436, y: -0.073681496, z: 0.040327273, w: 0.4572813}
        tangentMode: 0
        weightedMode: 0
        inWeight: {x: 0.33333334, y: 0.33333334, z: 0.33333334, w: 0.33333334}
        outWeight: {x: 0.33333334, y: 0.33333334, z: 0.33333334, w: 0.33333334}
      - serializedVersion: 3
        time: 0.5333335
        value: {x: 0.1757561, y: 0.009117556, z: 0.0016278769, w: -0.98439014}
        inSlope: {x: 4.489889, y: -0.07560663, z: 0.029411506, w: 0.80098706}
        outSlope: {x: 4.489889, y: -0.07560663, z: 0.029411506, w: 0.80098706}
        tangentMode: 0
        weightedMode: 0
        inWeight: {x: 0.33333334, y: 0.33333334, z: 0.33333334, w: 0.33333334}
        outWeight: {x: 0.33333334, y: 0.33333334, z: 0.33333334, w: 0.33333334}
      - serializedVersion: 3
        time: 0.55000013
        value: {x: 0.25007963, y: 0.007846527, z: 0.002026724, w: -0.9681914}
        inSlope: {x: 4.416035, y: -0.07630381, z: 0.018466495, w: 1.1400615}
        outSlope: {x: 4.416035, y: -0.07630381, z: 0.018466495, w: 1.1400615}
        tangentMode: 0
        weightedMode: 0
        inWeight: {x: 0.33333334, y: 0.33333334, z: 0.33333334, w: 0.33333334}
        outWeight: {x: 0.33333334, y: 0.33333334, z: 0.33333334, w: 0.33333334}
      - serializedVersion: 3
        time: 0.5666668
        value: {x: 0.32295713, y: 0.006574098, z: 0.0022434262, w: -0.9463881}
        inSlope: {x: 4.3166084, y: -0.075781986, z: 0.0076152873, w: 1.4725449}
        outSlope: {x: 4.3166084, y: -0.075781986, z: 0.0076152873, w: 1.4725449}
        tangentMode: 0
        weightedMode: 0
        inWeight: {x: 0.33333334, y: 0.33333334, z: 0.33333334, w: 0.33333334}
        outWeight: {x: 0.33333334, y: 0.33333334, z: 0.33333334, w: 0.33333334}
      - serializedVersion: 3
        time: 0.58333343
        value: {x: 0.39396644, y: 0.005320463, z: 0.0022805666, w: -0.9191066}
        inSlope: {x: 4.1921787, y: -0.074061766, z: -0.0030208407, w: 1.7965043}
        outSlope: {x: 4.1921787, y: -0.074061766, z: -0.0030208407, w: 1.7965043}
        tangentMode: 0
        weightedMode: 0
        inWeight: {x: 0.33333334, y: 0.33333334, z: 0.33333334, w: 0.33333334}
        outWeight: {x: 0.33333334, y: 0.33333334, z: 0.33333334, w: 0.33333334}
      - serializedVersion: 3
        time: 0.6000001
        value: {x: 0.46269628, y: 0.0041053747, z: 0.0021427316, w: -0.8865047}
        inSlope: {x: 4.0434766, y: -0.07117504, z: -0.013323277, w: 2.1100636}
        outSlope: {x: 4.0434766, y: -0.07117504, z: -0.013323277, w: 2.1100636}
        tangentMode: 0
        weightedMode: 0
        inWeight: {x: 0.33333334, y: 0.33333334, z: 0.33333334, w: 0.33333334}
        outWeight: {x: 0.33333334, y: 0.33333334, z: 0.33333334, w: 0.33333334}
      - serializedVersion: 3
        time: 0.61666673
        value: {x: 0.52874887, y: 0.002947964, z: 0.0018364578, w: -0.8487712}
        inSlope: {x: 3.8713531, y: -0.067164585, z: -0.023177199, w: 2.4114046}
        outSlope: {x: 3.8713531, y: -0.067164585, z: -0.023177199, w: 2.4114046}
        tangentMode: 0
        weightedMode: 0
        inWeight: {x: 0.33333334, y: 0.33333334, z: 0.33333334, w: 0.33333334}
        outWeight: {x: 0.33333334, y: 0.33333334, z: 0.33333334, w: 0.33333334}
      - serializedVersion: 3
        time: 0.6333334
        value: {x: 0.59174126, y: 0.0018665572, z: 0.001370159, w: -0.8061246}
        inSlope: {x: 3.6768079, y: -0.06208394, z: -0.03247251, w: 2.6987858}
        outSlope: {x: 3.6768079, y: -0.06208394, z: -0.03247251, w: 2.6987858}
        tangentMode: 0
        weightedMode: 0
        inWeight: {x: 0.33333334, y: 0.33333334, z: 0.33333334, w: 0.33333334}
        outWeight: {x: 0.33333334, y: 0.33333334, z: 0.33333334, w: 0.33333334}
      - serializedVersion: 3
        time: 0.65000004
        value: {x: 0.651309, y: 0.0008785013, z: 0.00075404183, w: -0.7588118}
        inSlope: {x: 3.4609685, y: -0.05599677, z: -0.04110481, w: 2.9705386}
        outSlope: {x: 3.4609685, y: -0.05599677, z: -0.04110481, w: 2.9705386}
        tangentMode: 0
        weightedMode: 0
        inWeight: {x: 0.33333334, y: 0.33333334, z: 0.33333334, w: 0.33333334}
        outWeight: {x: 0.33333334, y: 0.33333334, z: 0.33333334, w: 0.33333334}
      - serializedVersion: 3
        time: 0.6666667
        value: {x: 0.70710677, y: -0, z: -0, w: -0.70710677}
        inSlope: {x: 3.3478684, y: -0.052710127, z: -0.04524255, w: 3.102303}
        outSlope: {x: 3.3478684, y: -0.052710127, z: -0.04524255, w: 3.102303}
        tangentMode: 0
        weightedMode: 0
        inWeight: {x: 0.33333334, y: 0.33333334, z: 0.33333334, w: 0.33333334}
        outWeight: {x: 0.33333334, y: 0.33333334, z: 0.33333334, w: 0.33333334}
      m_PreInfinity: 2
      m_PostInfinity: 2
      m_RotationOrder: 4
    path: Regular_Bomb
  m_CompressedRotationCurves: []
  m_EulerCurves: []
  m_PositionCurves: []
  m_ScaleCurves: []
  m_FloatCurves: []
  m_PPtrCurves: []
  m_SampleRate: 60
  m_WrapMode: 2
  m_Bounds:
    m_Center: {x: 0, y: 0, z: 0}
    m_Extent: {x: 0, y: 0, z: 0}
  m_ClipBindingConstant:
    genericBindings: []
    pptrCurveMapping: []
  m_AnimationClipSettings:
    serializedVersion: 2
    m_AdditiveReferencePoseClip: {fileID: 0}
    m_AdditiveReferencePoseTime: 0
    m_StartTime: 0
    m_StopTime: 0.6666667
    m_OrientationOffsetY: 0
    m_Level: 0
    m_CycleOffset: 0
    m_HasAdditiveReferencePose: 0
    m_LoopTime: 1
    m_LoopBlend: 0
    m_LoopBlendOrientation: 0
    m_LoopBlendPositionY: 0
    m_LoopBlendPositionXZ: 0
    m_KeepOriginalOrientation: 0
    m_KeepOriginalPositionY: 1
    m_KeepOriginalPositionXZ: 0
    m_HeightFromFeet: 0
    m_Mirror: 0
  m_EditorCurves:
  - curve:
      serializedVersion: 2
      m_Curve:
      - serializedVersion: 3
        time: 0
        value: -0.7069834
        inSlope: -2.0222926
        outSlope: -2.0222926
        tangentMode: 0
        weightedMode: 0
        inWeight: 0.33333334
        outWeight: 0.33333334
      - serializedVersion: 3
        time: 0.016666668
        value: -0.74068826
        inSlope: -1.9591265
        outSlope: -1.9591265
        tangentMode: 0
        weightedMode: 0
        inWeight: 0.33333334
        outWeight: 0.33333334
      - serializedVersion: 3
        time: 0.033333335
        value: -0.7722876
        inSlope: -1.8294344
        outSlope: -1.8294344
        tangentMode: 0
        weightedMode: 0
        inWeight: 0.33333334
        outWeight: 0.33333334
      - serializedVersion: 3
        time: 0.050000004
        value: -0.8016694
        inSlope: -1.6933
        outSlope: -1.6933
        tangentMode: 0
        weightedMode: 0
        inWeight: 0.33333334
        outWeight: 0.33333334
      - serializedVersion: 3
        time: 0.06666667
        value: -0.82873094
        inSlope: -1.551295
        outSlope: -1.551295
        tangentMode: 0
        weightedMode: 0
        inWeight: 0.33333334
        outWeight: 0.33333334
      - serializedVersion: 3
        time: 0.083333336
        value: -0.85337925
        inSlope: -1.4040203
        outSlope: -1.4040203
        tangentMode: 0
        weightedMode: 0
        inWeight: 0.33333334
        outWeight: 0.33333334
      - serializedVersion: 3
        time: 0.1
        value: -0.8755316
        inSlope: -1.2521036
        outSlope: -1.2521036
        tangentMode: 0
        weightedMode: 0
        inWeight: 0.33333334
        outWeight: 0.33333334
      - serializedVersion: 3
        time: 0.11666667
        value: -0.89511603
        inSlope: -1.0961812
        outSlope: -1.0961812
        tangentMode: 0
        weightedMode: 0
        inWeight: 0.33333334
        outWeight: 0.33333334
      - serializedVersion: 3
        time: 0.13333334
        value: -0.912071
        inSlope: -0.9369116
        outSlope: -0.9369116
        tangentMode: 0
        weightedMode: 0
        inWeight: 0.33333334
        outWeight: 0.33333334
      - serializedVersion: 3
        time: 0.15
        value: -0.9263464
        inSlope: -0.7749707
        outSlope: -0.7749707
        tangentMode: 0
        weightedMode: 0
        inWeight: 0.33333334
        outWeight: 0.33333334
      - serializedVersion: 3
        time: 0.16666667
        value: -0.93790334
        inSlope: -1.1436905
        outSlope: -1.1436905
        tangentMode: 0
        weightedMode: 0
        inWeight: 0.33333334
        outWeight: 0.33333334
      - serializedVersion: 3
        time: 0.18333334
        value: -0.96446943
        inSlope: -1.298259
        outSlope: -1.298259
        tangentMode: 0
        weightedMode: 0
        inWeight: 0.33333334
        outWeight: 0.33333334
      - serializedVersion: 3
        time: 0.2
        value: -0.98117864
        inSlope: -0.6999565
        outSlope: -0.6999565
        tangentMode: 0
        weightedMode: 0
        inWeight: 0.33333334
        outWeight: 0.33333334
      - serializedVersion: 3
        time: 0.21666667
        value: -0.9878013
        inSlope: -0.09123624
        outSlope: -0.09123624
        tangentMode: 0
        weightedMode: 0
        inWeight: 0.33333334
        outWeight: 0.33333334
      - serializedVersion: 3
        time: 0.23333333
        value: -0.98421985
        inSlope: 0.5211354
        outSlope: 0.5211354
        tangentMode: 0
        weightedMode: 0
        inWeight: 0.33333334
        outWeight: 0.33333334
      - serializedVersion: 3
        time: 0.25
        value: -0.97043014
        inSlope: 1.1303198
        outSlope: 1.1303198
        tangentMode: 0
        weightedMode: 0
        inWeight: 0.33333334
        outWeight: 0.33333334
      - serializedVersion: 3
        time: 0.26666668
        value: -0.9465425
        inSlope: 1.7294905
        outSlope: 1.7294905
        tangentMode: 0
        weightedMode: 0
        inWeight: 0.33333334
        outWeight: 0.33333334
      - serializedVersion: 3
        time: 0.28333336
        value: -0.9127804
        inSlope: 2.3119156
        outSlope: 2.3119156
        tangentMode: 0
        weightedMode: 0
        inWeight: 0.33333334
        outWeight: 0.33333334
      - serializedVersion: 3
        time: 0.30000004
        value: -0.8694786
        inSlope: 2.8710504
        outSlope: 2.8710504
        tangentMode: 0
        weightedMode: 0
        inWeight: 0.33333334
        outWeight: 0.33333334
      - serializedVersion: 3
        time: 0.31666672
        value: -0.81707865
        inSlope: 3.4005983
        outSlope: 3.4005983
        tangentMode: 0
        weightedMode: 0
        inWeight: 0.33333334
        outWeight: 0.33333334
      - serializedVersion: 3
        time: 0.3333334
        value: -0.7561252
        inSlope: 3.894584
        outSlope: 3.894584
        tangentMode: 0
        weightedMode: 0
        inWeight: 0.33333334
        outWeight: 0.33333334
      - serializedVersion: 3
        time: 0.35000008
        value: -0.6872591
        inSlope: 4.347446
        outSlope: 4.347446
        tangentMode: 0
        weightedMode: 0
        inWeight: 0.33333334
        outWeight: 0.33333334
      - serializedVersion: 3
        time: 0.36666676
        value: -0.6112102
        inSlope: 4.754081
        outSlope: 4.754081
        tangentMode: 0
        weightedMode: 0
        inWeight: 0.33333334
        outWeight: 0.33333334
      - serializedVersion: 3
        time: 0.38333344
        value: -0.5287896
        inSlope: 5.109909
        outSlope: 5.109909
        tangentMode: 0
        weightedMode: 0
        inWeight: 0.33333334
        outWeight: 0.33333334
      - serializedVersion: 3
        time: 0.40000013
        value: -0.4408798
        inSlope: 5.410931
        outSlope: 5.410931
        tangentMode: 0
        weightedMode: 0
        inWeight: 0.33333334
        outWeight: 0.33333334
      - serializedVersion: 3
        time: 0.4166668
        value: -0.34842506
        inSlope: 4.9409423
        outSlope: 4.9409423
        tangentMode: 0
        weightedMode: 0
        inWeight: 0.33333334
        outWeight: 0.33333334
      - serializedVersion: 3
        time: 0.4333335
        value: -0.27618158
        inSlope: 4.3826437
        outSlope: 4.3826437
        tangentMode: 0
        weightedMode: 0
        inWeight: 0.33333334
        outWeight: 0.33333334
      - serializedVersion: 3
        time: 0.45000017
        value: -0.20233682
        inSlope: 4.465895
        outSlope: 4.465895
        tangentMode: 0
        weightedMode: 0
        inWeight: 0.33333334
        outWeight: 0.33333334
      - serializedVersion: 3
        time: 0.46666685
        value: -0.12731828
        inSlope: 4.5232906
        outSlope: 4.5232906
        tangentMode: 0
        weightedMode: 0
        inWeight: 0.33333334
        outWeight: 0.33333334
      - serializedVersion: 3
        time: 0.48333353
        value: -0.05156034
        inSlope: 4.554492
        outSlope: 4.554492
        tangentMode: 0
        weightedMode: 0
        inWeight: 0.33333334
        outWeight: 0.33333334
      - serializedVersion: 3
        time: 0.5000002
        value: 0.024498122
        inSlope: 4.559319
        outSlope: 4.559319
        tangentMode: 0
        weightedMode: 0
        inWeight: 0.33333334
        outWeight: 0.33333334
      - serializedVersion: 3
        time: 0.5166668
        value: 0.10041681
        inSlope: 4.5377436
        outSlope: 4.5377436
        tangentMode: 0
        weightedMode: 0
        inWeight: 0.33333334
        outWeight: 0.33333334
      - serializedVersion: 3
        time: 0.5333335
        value: 0.1757561
        inSlope: 4.489889
        outSlope: 4.489889
        tangentMode: 0
        weightedMode: 0
        inWeight: 0.33333334
        outWeight: 0.33333334
      - serializedVersion: 3
        time: 0.55000013
        value: 0.25007963
        inSlope: 4.416035
        outSlope: 4.416035
        tangentMode: 0
        weightedMode: 0
        inWeight: 0.33333334
        outWeight: 0.33333334
      - serializedVersion: 3
        time: 0.5666668
        value: 0.32295713
        inSlope: 4.3166084
        outSlope: 4.3166084
        tangentMode: 0
        weightedMode: 0
        inWeight: 0.33333334
        outWeight: 0.33333334
      - serializedVersion: 3
        time: 0.58333343
        value: 0.39396644
        inSlope: 4.1921787
        outSlope: 4.1921787
        tangentMode: 0
        weightedMode: 0
        inWeight: 0.33333334
        outWeight: 0.33333334
      - serializedVersion: 3
        time: 0.6000001
        value: 0.46269628
        inSlope: 4.0434766
        outSlope: 4.0434766
        tangentMode: 0
        weightedMode: 0
        inWeight: 0.33333334
        outWeight: 0.33333334
      - serializedVersion: 3
        time: 0.61666673
        value: 0.52874887
        inSlope: 3.8713531
        outSlope: 3.8713531
        tangentMode: 0
        weightedMode: 0
        inWeight: 0.33333334
        outWeight: 0.33333334
      - serializedVersion: 3
        time: 0.6333334
        value: 0.59174126
        inSlope: 3.6768079
        outSlope: 3.6768079
        tangentMode: 0
        weightedMode: 0
        inWeight: 0.33333334
        outWeight: 0.33333334
      - serializedVersion: 3
        time: 0.65000004
        value: 0.651309
        inSlope: 3.4609685
        outSlope: 3.4609685
        tangentMode: 0
        weightedMode: 0
        inWeight: 0.33333334
        outWeight: 0.33333334
      - serializedVersion: 3
        time: 0.6666667
        value: 0.70710677
        inSlope: 3.3478684
        outSlope: 3.3478684
        tangentMode: 0
        weightedMode: 0
        inWeight: 0.33333334
        outWeight: 0.33333334
      m_PreInfinity: 2
      m_PostInfinity: 2
      m_RotationOrder: 4
    attribute: m_LocalRotation.x
    path: Regular_Bomb
    classID: 4
    script: {fileID: 0}
  - curve:
      serializedVersion: 2
      m_Curve:
      - serializedVersion: 3
        time: 0
        value: -0
        inSlope: 0.80427104
        outSlope: 0.80427104
        tangentMode: 0
        weightedMode: 0
        inWeight: 0.33333334
        outWeight: 0.33333334
      - serializedVersion: 3
        time: 0.016666668
        value: 0.013404518
        inSlope: 0.75962186
        outSlope: 0.75962186
        tangentMode: 0
        weightedMode: 0
        inWeight: 0.33333334
        outWeight: 0.33333334
      - serializedVersion: 3
        time: 0.033333335
        value: 0.025320731
        inSlope: 0.6674634
        outSlope: 0.6674634
        tangentMode: 0
        weightedMode: 0
        inWeight: 0.33333334
        outWeight: 0.33333334
      - serializedVersion: 3
        time: 0.050000004
        value: 0.0356533
        inSlope: 0.5698481
        outSlope: 0.5698481
        tangentMode: 0
        weightedMode: 0
        inWeight: 0.33333334
        outWeight: 0.33333334
      - serializedVersion: 3
        time: 0.06666667
        value: 0.04431567
        inSlope: 0.46731764
        outSlope: 0.46731764
        tangentMode: 0
        weightedMode: 0
        inWeight: 0.33333334
        outWeight: 0.33333334
      - serializedVersion: 3
        time: 0.083333336
        value: 0.051230554
        inSlope: 0.3604365
        outSlope: 0.3604365
        tangentMode: 0
        weightedMode: 0
        inWeight: 0.33333334
        outWeight: 0.33333334
      - serializedVersion: 3
        time: 0.1
        value: 0.05633022
        inSlope: 0.2497928
        outSlope: 0.2497928
        tangentMode: 0
        weightedMode: 0
        inWeight: 0.33333334
        outWeight: 0.33333334
      - serializedVersion: 3
        time: 0.11666667
        value: 0.05955698
        inSlope: 0.13599637
        outSlope: 0.13599637
        tangentMode: 0
        weightedMode: 0
        inWeight: 0.33333334
        outWeight: 0.33333334
      - serializedVersion: 3
        time: 0.13333334
        value: 0.06086343
        inSlope: 0.019671304
        outSlope: 0.019671304
        tangentMode: 0
        weightedMode: 0
        inWeight: 0.33333334
        outWeight: 0.33333334
      - serializedVersion: 3
        time: 0.15
        value: 0.06021269
        inSlope: -0.09854336
        outSlope: -0.09854336
        tangentMode: 0
        weightedMode: 0
        inWeight: 0.33333334
        outWeight: 0.33333334
      - serializedVersion: 3
        time: 0.16666667
        value: 0.057578653
        inSlope: -0.74165857
        outSlope: -0.74165857
        tangentMode: 0
        weightedMode: 0
        inWeight: 0.33333334
        outWeight: 0.33333334
      - serializedVersion: 3
        time: 0.18333334
        value: 0.03549074
        inSlope: -1.2521899
        outSlope: -1.2521899
        tangentMode: 0
        weightedMode: 0
        inWeight: 0.33333334
        outWeight: 0.33333334
      - serializedVersion: 3
        time: 0.2
        value: 0.01583899
        inSlope: -1.098474
        outSlope: -1.098474
        tangentMode: 0
        weightedMode: 0
        inWeight: 0.33333334
        outWeight: 0.33333334
      - serializedVersion: 3
        time: 0.21666667
        value: -0.0011250626
        inSlope: -0.93137985
        outSlope: -0.93137985
        tangentMode: 0
        weightedMode: 0
        inWeight: 0.33333334
        outWeight: 0.33333334
      - serializedVersion: 3
        time: 0.23333333
        value: -0.015207005
        inSlope: -0.75440335
        outSlope: -0.75440335
        tangentMode: 0
        weightedMode: 0
        inWeight: 0.33333334
        outWeight: 0.33333334
      - serializedVersion: 3
        time: 0.25
        value: -0.026271839
        inSlope: -0.57115006
        outSlope: -0.57115006
        tangentMode: 0
        weightedMode: 0
        inWeight: 0.33333334
        outWeight: 0.33333334
      - serializedVersion: 3
        time: 0.26666668
        value: -0.034245346
        inSlope: -0.38528302
        outSlope: -0.38528302
        tangentMode: 0
        weightedMode: 0
        inWeight: 0.33333334
        outWeight: 0.33333334
      - serializedVersion: 3
        time: 0.28333336
        value: -0.039114617
        inSlope: -0.20046243
        outSlope: -0.20046243
        tangentMode: 0
        weightedMode: 0
        inWeight: 0.33333334
        outWeight: 0.33333334
      - serializedVersion: 3
        time: 0.30000004
        value: -0.040927432
        inSlope: -0.020290338
        outSlope: -0.020290338
        tangentMode: 0
        weightedMode: 0
        inWeight: 0.33333334
        outWeight: 0.33333334
      - serializedVersion: 3
        time: 0.31666672
        value: -0.039790962
        inSlope: 0.15174764
        outSlope: 0.15174764
        tangentMode: 0
        weightedMode: 0
        inWeight: 0.33333334
        outWeight: 0.33333334
      - serializedVersion: 3
        time: 0.3333334
        value: -0.035869174
        inSlope: 0.31233734
        outSlope: 0.31233734
        tangentMode: 0
        weightedMode: 0
        inWeight: 0.33333334
        outWeight: 0.33333334
      - serializedVersion: 3
        time: 0.35000008
        value: -0.029379709
        inSlope: 0.45838365
        outSlope: 0.45838365
        tangentMode: 0
        weightedMode: 0
        inWeight: 0.33333334
        outWeight: 0.33333334
      - serializedVersion: 3
        time: 0.36666676
        value: -0.020589706
        inSlope: 0.5870625
        outSlope: 0.5870625
        tangentMode: 0
        weightedMode: 0
        inWeight: 0.33333334
        outWeight: 0.33333334
      - serializedVersion: 3
        time: 0.38333344
        value: -0.009810941
        inSlope: 0.6958642
        outSlope: 0.6958642
        tangentMode: 0
        weightedMode: 0
        inWeight: 0.33333334
        outWeight: 0.33333334
      - serializedVersion: 3
        time: 0.40000013
        value: 0.0026057884
        inSlope: 0.782627
        outSlope: 0.782627
        tangentMode: 0
        weightedMode: 0
        inWeight: 0.33333334
        outWeight: 0.33333334
      - serializedVersion: 3
        time: 0.4166668
        value: 0.016276646
        inSlope: 0.3891365
        outSlope: 0.3891365
        tangentMode: 0
        weightedMode: 0
        inWeight: 0.33333334
        outWeight: 0.33333334
      - serializedVersion: 3
        time: 0.4333335
        value: 0.0155770155
        inSlope: -0.046141054
        outSlope: -0.046141054
        tangentMode: 0
        weightedMode: 0
        inWeight: 0.33333334
        outWeight: 0.33333334
      - serializedVersion: 3
        time: 0.45000017
        value: 0.01473861
        inSlope: -0.05393197
        outSlope: -0.05393197
        tangentMode: 0
        weightedMode: 0
        inWeight: 0.33333334
        outWeight: 0.33333334
      - serializedVersion: 3
        time: 0.46666685
        value: 0.013779282
        inSlope: -0.060624663
        outSlope: -0.060624663
        tangentMode: 0
        weightedMode: 0
        inWeight: 0.33333334
        outWeight: 0.33333334
      - serializedVersion: 3
        time: 0.48333353
        value: 0.012717786
        inSlope: -0.06617035
        outSlope: -0.06617035
        tangentMode: 0
        weightedMode: 0
        inWeight: 0.33333334
        outWeight: 0.33333334
      - serializedVersion: 3
        time: 0.5000002
        value: 0.011573603
        inSlope: -0.070531294
        outSlope: -0.070531294
        tangentMode: 0
        weightedMode: 0
        inWeight: 0.33333334
        outWeight: 0.33333334
      - serializedVersion: 3
        time: 0.5166668
        value: 0.010366745
        inSlope: -0.073681496
        outSlope: -0.073681496
        tangentMode: 0
        weightedMode: 0
        inWeight: 0.33333334
        outWeight: 0.33333334
      - serializedVersion: 3
        time: 0.5333335
        value: 0.009117556
        inSlope: -0.07560663
        outSlope: -0.07560663
        tangentMode: 0
        weightedMode: 0
        inWeight: 0.33333334
        outWeight: 0.33333334
      - serializedVersion: 3
        time: 0.55000013
        value: 0.007846527
        inSlope: -0.07630381
        outSlope: -0.07630381
        tangentMode: 0
        weightedMode: 0
        inWeight: 0.33333334
        outWeight: 0.33333334
      - serializedVersion: 3
        time: 0.5666668
        value: 0.006574098
        inSlope: -0.075781986
        outSlope: -0.075781986
        tangentMode: 0
        weightedMode: 0
        inWeight: 0.33333334
        outWeight: 0.33333334
      - serializedVersion: 3
        time: 0.58333343
        value: 0.005320463
        inSlope: -0.074061766
        outSlope: -0.074061766
        tangentMode: 0
        weightedMode: 0
        inWeight: 0.33333334
        outWeight: 0.33333334
      - serializedVersion: 3
        time: 0.6000001
        value: 0.0041053747
        inSlope: -0.07117504
        outSlope: -0.07117504
        tangentMode: 0
        weightedMode: 0
        inWeight: 0.33333334
        outWeight: 0.33333334
      - serializedVersion: 3
        time: 0.61666673
        value: 0.002947964
        inSlope: -0.067164585
        outSlope: -0.067164585
        tangentMode: 0
        weightedMode: 0
        inWeight: 0.33333334
        outWeight: 0.33333334
      - serializedVersion: 3
        time: 0.6333334
        value: 0.0018665572
        inSlope: -0.06208394
        outSlope: -0.06208394
        tangentMode: 0
        weightedMode: 0
        inWeight: 0.33333334
        outWeight: 0.33333334
      - serializedVersion: 3
        time: 0.65000004
        value: 0.0008785013
        inSlope: -0.05599677
        outSlope: -0.05599677
        tangentMode: 0
        weightedMode: 0
        inWeight: 0.33333334
        outWeight: 0.33333334
      - serializedVersion: 3
        time: 0.6666667
        value: -0
        inSlope: -0.052710127
        outSlope: -0.052710127
        tangentMode: 0
        weightedMode: 0
        inWeight: 0.33333334
        outWeight: 0.33333334
      m_PreInfinity: 2
      m_PostInfinity: 2
      m_RotationOrder: 4
    attribute: m_LocalRotation.y
    path: Regular_Bomb
    classID: 4
    script: {fileID: 0}
  - curve:
      serializedVersion: 2
      m_Curve:
      - serializedVersion: 3
        time: 0
        value: -0
        inSlope: 0.8870701
        outSlope: 0.8870701
        tangentMode: 0
        weightedMode: 0
        inWeight: 0.33333334
        outWeight: 0.33333334
      - serializedVersion: 3
        time: 0.016666668
        value: 0.014784503
        inSlope: 0.925283
        outSlope: 0.925283
        tangentMode: 0
        weightedMode: 0
        inWeight: 0.33333334
        outWeight: 0.33333334
      - serializedVersion: 3
        time: 0.033333335
        value: 0.030842768
        inSlope: 0.9981513
        outSlope: 0.9981513
        tangentMode: 0
        weightedMode: 0
        inWeight: 0.33333334
        outWeight: 0.33333334
      - serializedVersion: 3
        time: 0.050000004
        value: 0.048056215
        inSlope: 1.0637054
        outSlope: 1.0637054
        tangentMode: 0
        weightedMode: 0
        inWeight: 0.33333334
        outWeight: 0.33333334
      - serializedVersion: 3
        time: 0.06666667
        value: 0.06629962
        inSlope: 1.1215684
        outSlope: 1.1215684
        tangentMode: 0
        weightedMode: 0
        inWeight: 0.33333334
        outWeight: 0.33333334
      - serializedVersion: 3
        time: 0.083333336
        value: 0.08544183
        inSlope: 1.1714017
        outSlope: 1.1714017
        tangentMode: 0
        weightedMode: 0
        inWeight: 0.33333334
        outWeight: 0.33333334
      - serializedVersion: 3
        time: 0.1
        value: 0.10534634
        inSlope: 1.2129061
        outSlope: 1.2129061
        tangentMode: 0
        weightedMode: 0
        inWeight: 0.33333334
        outWeight: 0.33333334
      - serializedVersion: 3
        time: 0.11666667
        value: 0.12587203
        inSlope: 1.2458265
        outSlope: 1.2458265
        tangentMode: 0
        weightedMode: 0
        inWeight: 0.33333334
        outWeight: 0.33333334
      - serializedVersion: 3
        time: 0.13333334
        value: 0.14687389
        inSlope: 1.2699497
        outSlope: 1.2699497
        tangentMode: 0
        weightedMode: 0
        inWeight: 0.33333334
        outWeight: 0.33333334
      - serializedVersion: 3
        time: 0.15
        value: 0.1682037
        inSlope: 1.2851071
        outSlope: 1.2851071
        tangentMode: 0
        weightedMode: 0
        inWeight: 0.33333334
        outWeight: 0.33333334
      - serializedVersion: 3
        time: 0.16666667
        value: 0.1897108
        inSlope: 0.3720662
        outSlope: 0.3720662
        tangentMode: 0
        weightedMode: 0
        inWeight: 0.33333334
        outWeight: 0.33333334
      - serializedVersion: 3
        time: 0.18333334
        value: 0.1806059
        inSlope: -0.6187696
        outSlope: -0.6187696
        tangentMode: 0
        weightedMode: 0
        inWeight: 0.33333334
        outWeight: 0.33333334
      - serializedVersion: 3
        time: 0.2
        value: 0.16908514
        inSlope: -0.75164175
        outSlope: -0.75164175
        tangentMode: 0
        weightedMode: 0
        inWeight: 0.33333334
        outWeight: 0.33333334
      - serializedVersion: 3
        time: 0.21666667
        value: 0.15555118
        inSlope: -0.8596065
        outSlope: -0.8596065
        tangentMode: 0
        weightedMode: 0
        inWeight: 0.33333334
        outWeight: 0.33333334
      - serializedVersion: 3
        time: 0.23333333
        value: 0.1404316
        inSlope: -0.94139016
        outSlope: -0.94139016
        tangentMode: 0
        weightedMode: 0
        inWeight: 0.33333334
        outWeight: 0.33333334
      - serializedVersion: 3
        time: 0.25
        value: 0.12417151
        inSlope: -0.99617517
        outSlope: -0.99617517
        tangentMode: 0
        weightedMode: 0
        inWeight: 0.33333334
        outWeight: 0.33333334
      - serializedVersion: 3
        time: 0.26666668
        value: 0.107225746
        inSlope: -1.0236101
        outSlope: -1.0236101
        tangentMode: 0
        weightedMode: 0
        inWeight: 0.33333334
        outWeight: 0.33333334
      - serializedVersion: 3
        time: 0.28333336
        value: 0.090051144
        inSlope: -1.0238099
        outSlope: -1.0238099
        tangentMode: 0
        weightedMode: 0
        inWeight: 0.33333334
        outWeight: 0.33333334
      - serializedVersion: 3
        time: 0.30000004
        value: 0.07309872
        inSlope: -0.9973512
        outSlope: -0.9973512
        tangentMode: 0
        weightedMode: 0
        inWeight: 0.33333334
        outWeight: 0.33333334
      - serializedVersion: 3
        time: 0.31666672
        value: 0.056806076
        inSlope: -0.9452614
        outSlope: -0.9452614
        tangentMode: 0
        weightedMode: 0
        inWeight: 0.33333334
        outWeight: 0.33333334
      - serializedVersion: 3
        time: 0.3333334
        value: 0.04158998
        inSlope: -0.8689995
        outSlope: -0.8689995
        tangentMode: 0
        weightedMode: 0
        inWeight: 0.33333334
        outWeight: 0.33333334
      - serializedVersion: 3
        time: 0.35000008
        value: 0.027839404
        inSlope: -0.7704296
        outSlope: -0.7704296
        tangentMode: 0
        weightedMode: 0
        inWeight: 0.33333334
        outWeight: 0.33333334
      - serializedVersion: 3
        time: 0.36666676
        value: 0.01590897
        inSlope: -0.65179235
        outSlope: -0.65179235
        tangentMode: 0
        weightedMode: 0
        inWeight: 0.33333334
        outWeight: 0.33333334
      - serializedVersion: 3
        time: 0.38333344
        value: 0.0061129746
        inSlope: -0.5156674
        outSlope: -0.5156674
        tangentMode: 0
        weightedMode: 0
        inWeight: 0.33333334
        outWeight: 0.33333334
      - serializedVersion: 3
        time: 0.40000013
        value: -0.0012799563
        inSlope: -0.36492985
        outSlope: -0.36492985
        tangentMode: 0
        weightedMode: 0
        inWeight: 0.33333334
        outWeight: 0.33333334
      - serializedVersion: 3
        time: 0.4166668
        value: -0.0060513634
        inSlope: -0.095905855
        outSlope: -0.095905855
        tangentMode: 0
        weightedMode: 0
        inWeight: 0.33333334
        outWeight: 0.33333334
      - serializedVersion: 3
        time: 0.4333335
        value: -0.0044768206
        inSlope: 0.090175554
        outSlope: 0.090175554
        tangentMode: 0
        weightedMode: 0
        inWeight: 0.33333334
        outWeight: 0.33333334
      - serializedVersion: 3
        time: 0.45000017
        value: -0.003045509
        inSlope: 0.081236884
        outSlope: 0.081236884
        tangentMode: 0
        weightedMode: 0
        inWeight: 0.33333334
        outWeight: 0.33333334
      - serializedVersion: 3
        time: 0.46666685
        value: -0.0017689223
        inSlope: 0.071665406
        outSlope: 0.071665406
        tangentMode: 0
        weightedMode: 0
        inWeight: 0.33333334
        outWeight: 0.33333334
      - serializedVersion: 3
        time: 0.48333353
        value: -0.00065666006
        inSlope: 0.06157674
        outSlope: 0.06157674
        tangentMode: 0
        weightedMode: 0
        inWeight: 0.33333334
        outWeight: 0.33333334
      - serializedVersion: 3
        time: 0.5000002
        value: 0.00028363566
        inSlope: 0.05109009
        outSlope: 0.05109009
        tangentMode: 0
        weightedMode: 0
        inWeight: 0.33333334
        outWeight: 0.33333334
      - serializedVersion: 3
        time: 0.5166668
        value: 0.0010463414
        inSlope: 0.040327273
        outSlope: 0.040327273
        tangentMode: 0
        weightedMode: 0
        inWeight: 0.33333334
        outWeight: 0.33333334
      - serializedVersion: 3
        time: 0.5333335
        value: 0.0016278769
        inSlope: 0.029411506
        outSlope: 0.029411506
        tangentMode: 0
        weightedMode: 0
        inWeight: 0.33333334
        outWeight: 0.33333334
      - serializedVersion: 3
        time: 0.55000013
        value: 0.002026724
        inSlope: 0.018466495
        outSlope: 0.018466495
        tangentMode: 0
        weightedMode: 0
        inWeight: 0.33333334
        outWeight: 0.33333334
      - serializedVersion: 3
        time: 0.5666668
        value: 0.0022434262
        inSlope: 0.0076152873
        outSlope: 0.0076152873
        tangentMode: 0
        weightedMode: 0
        inWeight: 0.33333334
        outWeight: 0.33333334
      - serializedVersion: 3
        time: 0.58333343
        value: 0.0022805666
        inSlope: -0.0030208407
        outSlope: -0.0030208407
        tangentMode: 0
        weightedMode: 0
        inWeight: 0.33333334
        outWeight: 0.33333334
      - serializedVersion: 3
        time: 0.6000001
        value: 0.0021427316
        inSlope: -0.013323277
        outSlope: -0.013323277
        tangentMode: 0
        weightedMode: 0
        inWeight: 0.33333334
        outWeight: 0.33333334
      - serializedVersion: 3
        time: 0.61666673
        value: 0.0018364578
        inSlope: -0.023177199
        outSlope: -0.023177199
        tangentMode: 0
        weightedMode: 0
        inWeight: 0.33333334
        outWeight: 0.33333334
      - serializedVersion: 3
        time: 0.6333334
        value: 0.001370159
        inSlope: -0.03247251
        outSlope: -0.03247251
        tangentMode: 0
        weightedMode: 0
        inWeight: 0.33333334
        outWeight: 0.33333334
      - serializedVersion: 3
        time: 0.65000004
        value: 0.00075404183
        inSlope: -0.04110481
        outSlope: -0.04110481
        tangentMode: 0
        weightedMode: 0
        inWeight: 0.33333334
        outWeight: 0.33333334
      - serializedVersion: 3
        time: 0.6666667
        value: -0
        inSlope: -0.04524255
        outSlope: -0.04524255
        tangentMode: 0
        weightedMode: 0
        inWeight: 0.33333334
        outWeight: 0.33333334
      m_PreInfinity: 2
      m_PostInfinity: 2
      m_RotationOrder: 4
    attribute: m_LocalRotation.z
    path: Regular_Bomb
    classID: 4
    script: {fileID: 0}
  - curve:
      serializedVersion: 2
      m_Curve:
      - serializedVersion: 3
        time: 0
        value: 0.7072302
        inSlope: -2.1406639
        outSlope: -2.1406639
        tangentMode: 0
        weightedMode: 0
        inWeight: 0.33333334
        outWeight: 0.33333334
      - serializedVersion: 3
        time: 0.016666668
        value: 0.6715525
        inSlope: -2.19635
        outSlope: -2.19635
        tangentMode: 0
        weightedMode: 0
        inWeight: 0.33333334
        outWeight: 0.33333334
      - serializedVersion: 3
        time: 0.033333335
        value: 0.63401854
        inSlope: -2.3036203
        outSlope: -2.3036203
        tangentMode: 0
        weightedMode: 0
        inWeight: 0.33333334
        outWeight: 0.33333334
      - serializedVersion: 3
        time: 0.050000004
        value: 0.5947651
        inSlope: -2.402467
        outSlope: -2.402467
        tangentMode: 0
        weightedMode: 0
        inWeight: 0.33333334
        outWeight: 0.33333334
      - serializedVersion: 3
        time: 0.06666667
        value: 0.5539363
        inSlope: -2.492477
        outSlope: -2.492477
        tangentMode: 0
        weightedMode: 0
        inWeight: 0.33333334
        outWeight: 0.33333334
      - serializedVersion: 3
        time: 0.083333336
        value: 0.51168257
        inSlope: -2.5733044
        outSlope: -2.5733044
        tangentMode: 0
        weightedMode: 0
        inWeight: 0.33333334
        outWeight: 0.33333334
      - serializedVersion: 3
        time: 0.1
        value: 0.4681595
        inSlope: -2.644619
        outSlope: -2.644619
        tangentMode: 0
        weightedMode: 0
        inWeight: 0.33333334
        outWeight: 0.33333334
      - serializedVersion: 3
        time: 0.11666667
        value: 0.4235286
        inSlope: -2.706125
        outSlope: -2.706125
        tangentMode: 0
        weightedMode: 0
        inWeight: 0.33333334
        outWeight: 0.33333334
      - serializedVersion: 3
        time: 0.13333334
        value: 0.37795532
        inSlope: -2.7575965
        outSlope: -2.7575965
        tangentMode: 0
        weightedMode: 0
        inWeight: 0.33333334
        outWeight: 0.33333334
      - serializedVersion: 3
        time: 0.15
        value: 0.3316087
        inSlope: -2.798838
        outSlope: -2.798838
        tangentMode: 0
        weightedMode: 0
        inWeight: 0.33333334
        outWeight: 0.33333334
      - serializedVersion: 3
        time: 0.16666667
        value: 0.28466073
        inSlope: -4.2624454
        outSlope: -4.2624454
        tangentMode: 0
        weightedMode: 0
        inWeight: 0.33333334
        outWeight: 0.33333334
      - serializedVersion: 3
        time: 0.18333334
        value: 0.18952721
        inSlope: -5.7824755
        outSlope: -5.7824755
        tangentMode: 0
        weightedMode: 0
        inWeight: 0.33333334
        outWeight: 0.33333334
      - serializedVersion: 3
        time: 0.2
        value: 0.091911554
        inSlope: -5.900152
        outSlope: -5.900152
        tangentMode: 0
        weightedMode: 0
        inWeight: 0.33333334
        outWeight: 0.33333334
      - serializedVersion: 3
        time: 0.21666667
        value: -0.0071445187
        inSlope: -5.954712
        outSlope: -5.954712
        tangentMode: 0
        weightedMode: 0
        inWeight: 0.33333334
        outWeight: 0.33333334
      - serializedVersion: 3
        time: 0.23333333
        value: -0.106578834
        inSlope: -5.9452863
        outSlope: -5.9452863
        tangentMode: 0
        weightedMode: 0
        inWeight: 0.33333334
        outWeight: 0.33333334
      - serializedVersion: 3
        time: 0.25
        value: -0.20532072
        inSlope: -5.871726
        outSlope: -5.871726
        tangentMode: 0
        weightedMode: 0
        inWeight: 0.33333334
        outWeight: 0.33333334
      - serializedVersion: 3
        time: 0.26666668
        value: -0.3023031
        inSlope: -5.7346334
        outSlope: -5.7346334
        tangentMode: 0
        weightedMode: 0
        inWeight: 0.33333334
        outWeight: 0.33333334
      - serializedVersion: 3
        time: 0.28333336
        value: -0.39647532
        inSlope: -5.5353413
        outSlope: -5.5353413
        tangentMode: 0
        weightedMode: 0
        inWeight: 0.33333334
        outWeight: 0.33333334
      - serializedVersion: 3
        time: 0.30000004
        value: -0.48681465
        inSlope: -5.2759132
        outSlope: -5.2759132
        tangentMode: 0
        weightedMode: 0
        inWeight: 0.33333334
        outWeight: 0.33333334
      - serializedVersion: 3
        time: 0.31666672
        value: -0.57233924
        inSlope: -4.9591045
        outSlope: -4.9591045
        tangentMode: 0
        weightedMode: 0
        inWeight: 0.33333334
        outWeight: 0.33333334
      - serializedVersion: 3
        time: 0.3333334
        value: -0.65211827
        inSlope: -4.588337
        outSlope: -4.588337
        tangentMode: 0
        weightedMode: 0
        inWeight: 0.33333334
        outWeight: 0.33333334
      - serializedVersion: 3
        time: 0.35000008
        value: -0.7252839
        inSlope: -4.1676626
        outSlope: -4.1676626
        tangentMode: 0
        weightedMode: 0
        inWeight: 0.33333334
        outWeight: 0.33333334
      - serializedVersion: 3
        time: 0.36666676
        value: -0.7910405
        inSlope: -3.7017064
        outSlope: -3.7017064
        tangentMode: 0
        weightedMode: 0
        inWeight: 0.33333334
        outWeight: 0.33333334
      - serializedVersion: 3
        time: 0.38333344
        value: -0.84867424
        inSlope: -3.1956258
        outSlope: -3.1956258
        tangentMode: 0
        weightedMode: 0
        inWeight: 0.33333334
        outWeight: 0.33333334
      - serializedVersion: 3
        time: 0.40000013
        value: -0.89756143
        inSlope: -2.655045
        outSlope: -2.655045
        tangentMode: 0
        weightedMode: 0
        inWeight: 0.33333334
        outWeight: 0.33333334
      - serializedVersion: 3
        time: 0.4166668
        value: -0.9371758
        inSlope: -1.9022193
        outSlope: -1.9022193
        tangentMode: 0
        weightedMode: 0
        inWeight: 0.33333334
        outWeight: 0.33333334
      - serializedVersion: 3
        time: 0.4333335
        value: -0.9609688
        inSlope: -1.2607337
        outSlope: -1.2607337
        tangentMode: 0
        weightedMode: 0
        inWeight: 0.33333334
        outWeight: 0.33333334
      - serializedVersion: 3
        time: 0.45000017
        value: -0.9792003
        inSlope: -0.92387354
        outSlope: -0.92387354
        tangentMode: 0
        weightedMode: 0
        inWeight: 0.33333334
        outWeight: 0.33333334
      - serializedVersion: 3
        time: 0.46666685
        value: -0.9917646
        inSlope: -0.58165264
        outSlope: -0.58165264
        tangentMode: 0
        weightedMode: 0
        inWeight: 0.33333334
        outWeight: 0.33333334
      - serializedVersion: 3
        time: 0.48333353
        value: -0.99858874
        inSlope: -0.23604678
        outSlope: -0.23604678
        tangentMode: 0
        weightedMode: 0
        inWeight: 0.33333334
        outWeight: 0.33333334
      - serializedVersion: 3
        time: 0.5000002
        value: -0.99963284
        inSlope: 0.11093448
        outSlope: 0.11093448
        tangentMode: 0
        weightedMode: 0
        inWeight: 0.33333334
        outWeight: 0.33333334
      - serializedVersion: 3
        time: 0.5166668
        value: -0.9948909
        inSlope: 0.4572813
        outSlope: 0.4572813
        tangentMode: 0
        weightedMode: 0
        inWeight: 0.33333334
        outWeight: 0.33333334
      - serializedVersion: 3
        time: 0.5333335
        value: -0.98439014
        inSlope: 0.80098706
        outSlope: 0.80098706
        tangentMode: 0
        weightedMode: 0
        inWeight: 0.33333334
        outWeight: 0.33333334
      - serializedVersion: 3
        time: 0.55000013
        value: -0.9681914
        inSlope: 1.1400615
        outSlope: 1.1400615
        tangentMode: 0
        weightedMode: 0
        inWeight: 0.33333334
        outWeight: 0.33333334
      - serializedVersion: 3
        time: 0.5666668
        value: -0.9463881
        inSlope: 1.4725449
        outSlope: 1.4725449
        tangentMode: 0
        weightedMode: 0
        inWeight: 0.33333334
        outWeight: 0.33333334
      - serializedVersion: 3
        time: 0.58333343
        value: -0.9191066
        inSlope: 1.7965043
        outSlope: 1.7965043
        tangentMode: 0
        weightedMode: 0
        inWeight: 0.33333334
        outWeight: 0.33333334
      - serializedVersion: 3
        time: 0.6000001
        value: -0.8865047
        inSlope: 2.1100636
        outSlope: 2.1100636
        tangentMode: 0
        weightedMode: 0
        inWeight: 0.33333334
        outWeight: 0.33333334
      - serializedVersion: 3
        time: 0.61666673
        value: -0.8487712
        inSlope: 2.4114046
        outSlope: 2.4114046
        tangentMode: 0
        weightedMode: 0
        inWeight: 0.33333334
        outWeight: 0.33333334
      - serializedVersion: 3
        time: 0.6333334
        value: -0.8061246
        inSlope: 2.6987858
        outSlope: 2.6987858
        tangentMode: 0
        weightedMode: 0
        inWeight: 0.33333334
        outWeight: 0.33333334
      - serializedVersion: 3
        time: 0.65000004
        value: -0.7588118
        inSlope: 2.9705386
        outSlope: 2.9705386
        tangentMode: 0
        weightedMode: 0
        inWeight: 0.33333334
        outWeight: 0.33333334
      - serializedVersion: 3
        time: 0.6666667
        value: -0.70710677
        inSlope: 3.102303
        outSlope: 3.102303
        tangentMode: 0
        weightedMode: 0
        inWeight: 0.33333334
        outWeight: 0.33333334
      m_PreInfinity: 2
      m_PostInfinity: 2
      m_RotationOrder: 4
    attribute: m_LocalRotation.w
    path: Regular_Bomb
    classID: 4
    script: {fileID: 0}
  m_EulerEditorCurves:
  - curve:
      serializedVersion: 2
      m_Curve:
      - serializedVersion: 3
        time: 0
        value: 270.02
        inSlope: 0
        outSlope: -337.51868
        tangentMode: 69
        weightedMode: 0
        inWeight: 0.33333334
        outWeight: 0.33333334
      - serializedVersion: 3
        time: 0.16666667
        value: 213.76688
        inSlope: -337.51868
        outSlope: -691.91345
        tangentMode: 69
        weightedMode: 0
        inWeight: 0.33333334
        outWeight: 0.33333334
      - serializedVersion: 3
        time: 0.41666666
        value: 40.78853
        inSlope: -691.91345
        outSlope: -523.15405
        tangentMode: 69
        weightedMode: 0
        inWeight: 0.33333334
        outWeight: 0.33333334
      - serializedVersion: 3
        time: 0.6666667
        value: -90
        inSlope: -523.15405
        outSlope: 0
        tangentMode: 69
        weightedMode: 0
        inWeight: 0.33333334
        outWeight: 0.33333334
      m_PreInfinity: 2
      m_PostInfinity: 2
      m_RotationOrder: 4
    attribute: localEulerAnglesBaked.x
    path: Regular_Bomb
    classID: 4
    script: {fileID: 0}
  - curve:
      serializedVersion: 2
      m_Curve:
      - serializedVersion: 3
        time: 0
        value: 0
        inSlope: 0
        outSlope: 137.22
        tangentMode: 69
        weightedMode: 0
        inWeight: 0.33333334
        outWeight: 0.33333334
      - serializedVersion: 3
        time: 0.16666667
        value: 22.87
        inSlope: 137.22
        outSlope: -99.44001
        tangentMode: 69
        weightedMode: 0
        inWeight: 0.33333334
        outWeight: 0.33333334
      - serializedVersion: 3
        time: 0.41666666
        value: -1.99
        inSlope: -99.44001
        outSlope: 7.959999
        tangentMode: 69
        weightedMode: 0
        inWeight: 0.33333334
        outWeight: 0.33333334
      - serializedVersion: 3
        time: 0.6666667
        value: 0
        inSlope: 7.959999
        outSlope: 0
        tangentMode: 69
        weightedMode: 0
        inWeight: 0.33333334
        outWeight: 0.33333334
      m_PreInfinity: 2
      m_PostInfinity: 2
      m_RotationOrder: 4
    attribute: localEulerAnglesBaked.y
    path: Regular_Bomb
    classID: 4
    script: {fileID: 0}
  - curve:
      serializedVersion: 2
      m_Curve:
      - serializedVersion: 3
        time: 0
        value: 0
        inSlope: 0
        outSlope: 0
        tangentMode: 69
        weightedMode: 0
        inWeight: 0.33333334
        outWeight: 0.33333334
      - serializedVersion: 3
        time: 0.16666667
        value: 0
        inSlope: -0
        outSlope: 0
        tangentMode: 69
        weightedMode: 0
        inWeight: 0.33333334
        outWeight: 0.33333334
      - serializedVersion: 3
        time: 0.41666666
        value: 0
        inSlope: -0
        outSlope: 0
        tangentMode: 69
        weightedMode: 0
        inWeight: 0.33333334
        outWeight: 0.33333334
      - serializedVersion: 3
        time: 0.6666667
        value: 0
        inSlope: -0
        outSlope: 0
        tangentMode: 69
        weightedMode: 0
        inWeight: 0.33333334
        outWeight: 0.33333334
      m_PreInfinity: 2
      m_PostInfinity: 2
      m_RotationOrder: 4
    attribute: localEulerAnglesBaked.z
    path: Regular_Bomb
    classID: 4
    script: {fileID: 0}
  m_HasGenericRootTransform: 0
  m_HasMotionFloatCurves: 0
  m_Events: []
